^C:\USERS\INNOT\TASK3\SRC\TRIANGLES\MAIN.CPP
/c /I..\freeglut\include /I..\glew\include /I..\glm /ZI /nologo /W3 /WX- /Od /Oy- /D _MBCS /Gm /EHsc /RTC1 /MDd /GS /fp:precise /Zc:wchar_t /Zc:forScope /Fo"DEBUG\\" /Fd"DEBUG\VC110.PDB" /Gd /TP /analyze- C:\USERS\INNOT\TASK3\SRC\TRIANGLES\MAIN.CPP
^C:\USERS\INNOT\TASK3\SRC\TRIANGLES\MYOBJECT.CPP
/c /I..\freeglut\include /I..\glew\include /I..\glm /ZI /nologo /W3 /WX- /Od /Oy- /D _MBCS /Gm /EHsc /RTC1 /MDd /GS /fp:precise /Zc:wchar_t /Zc:forScope /Fo"DEBUG\\" /Fd"DEBUG\VC110.PDB" /Gd /TP /analyze- C:\USERS\INNOT\TASK3\SRC\TRIANGLES\MYOBJECT.CPP
^C:\USERS\INNOT\TASK3\SRC\TRIANGLES\SHADER.CPP
/c /I..\freeglut\include /I..\glew\include /I..\glm /ZI /nologo /W3 /WX- /Od /Oy- /D _MBCS /Gm /EHsc /RTC1 /MDd /GS /fp:precise /Zc:wchar_t /Zc:forScope /Fo"DEBUG\\" /Fd"DEBUG\VC110.PDB" /Gd /TP /analyze- C:\USERS\INNOT\TASK3\SRC\TRIANGLES\SHADER.CPP
^C:\USERS\INNOT\TASK3\SRC\TRIANGLES\SHADERPROGRAM.CPP
/c /I..\freeglut\include /I..\glew\include /I..\glm /ZI /nologo /W3 /WX- /Od /Oy- /D _MBCS /Gm /EHsc /RTC1 /MDd /GS /fp:precise /Zc:wchar_t /Zc:forScope /Fo"DEBUG\\" /Fd"DEBUG\VC110.PDB" /Gd /TP /analyze- C:\USERS\INNOT\TASK3\SRC\TRIANGLES\SHADERPROGRAM.CPP
^C:\USERS\INNOT\TASK3\SRC\TRIANGLES\SOURCE.CPP
/c /I..\freeglut\include /I..\glew\include /I..\glm /ZI /nologo /W3 /WX- /Od /Oy- /D _MBCS /Gm /EHsc /RTC1 /MDd /GS /fp:precise /Zc:wchar_t /Zc:forScope /Fo"DEBUG\\" /Fd"DEBUG\VC110.PDB" /Gd /TP /analyze- C:\USERS\INNOT\TASK3\SRC\TRIANGLES\SOURCE.CPP
^C:\USERS\INNOT\TASK3\SRC\TRIANGLES\SPHERE.CPP
/c /I..\freeglut\include /I..\glew\include /I..\glm /ZI /nologo /W3 /WX- /Od /Oy- /D _MBCS /Gm /EHsc /RTC1 /MDd /GS /fp:precise /Zc:wchar_t /Zc:forScope /Fo"DEBUG\\" /Fd"DEBUG\VC110.PDB" /Gd /TP /analyze- C:\USERS\INNOT\TASK3\SRC\TRIANGLES\SPHERE.CPP
^C:\USERS\INNOT\TASK3\SRC\TRIANGLES\PLANETS.CPP
/c /I..\freeglut\include /I..\glew\include /I..\glm /ZI /nologo /W3 /WX- /Od /Oy- /D _MBCS /Gm /EHsc /RTC1 /MDd /GS /fp:precise /Zc:wchar_t /Zc:forScope /Fo"DEBUG\\" /Fd"DEBUG\VC110.PDB" /Gd /TP /analyze- C:\USERS\INNOT\TASK3\SRC\TRIANGLES\PLANETS.CPP
^C:\USERS\INNOT\TASK3\SRC\EASYBMP\EASYBMP.CPP
/c /I..\freeglut\include /I..\glew\include /I..\glm /ZI /nologo /W3 /WX- /Od /Oy- /D _MBCS /Gm /EHsc /RTC1 /MDd /GS /fp:precise /Zc:wchar_t /Zc:forScope /Fo"DEBUG\\" /Fd"DEBUG\VC110.PDB" /Gd /TP /analyze- C:\USERS\INNOT\TASK3\SRC\EASYBMP\EASYBMP.CPP
^C:\USERS\INNOT\TASK3\SRC\EASYBMP\EASYBMP_FONT.CPP
/c /I..\freeglut\include /I..\glew\include /I..\glm /ZI /nologo /W3 /WX- /Od /Oy- /D _MBCS /Gm /EHsc /RTC1 /MDd /GS /fp:precise /Zc:wchar_t /Zc:forScope /Fo"DEBUG\\" /Fd"DEBUG\VC110.PDB" /Gd /TP /analyze- C:\USERS\INNOT\TASK3\SRC\EASYBMP\EASYBMP_FONT.CPP
^C:\USERS\INNOT\TASK3\SRC\EASYBMP\EASYBMP_GEOMETRY.CPP
/c /I..\freeglut\include /I..\glew\include /I..\glm /ZI /nologo /W3 /WX- /Od /Oy- /D _MBCS /Gm /EHsc /RTC1 /MDd /GS /fp:precise /Zc:wchar_t /Zc:forScope /Fo"DEBUG\\" /Fd"DEBUG\VC110.PDB" /Gd /TP /analyze- C:\USERS\INNOT\TASK3\SRC\EASYBMP\EASYBMP_GEOMETRY.CPP
^C:\USERS\INNOT\TASK3\SRC\EASYBMP\EASYBMP_OPENGL.CPP
/c /I..\freeglut\include /I..\glew\include /I..\glm /ZI /nologo /W3 /WX- /Od /Oy- /D _MBCS /Gm /EHsc /RTC1 /MDd /GS /fp:precise /Zc:wchar_t /Zc:forScope /Fo"DEBUG\\" /Fd"DEBUG\VC110.PDB" /Gd /TP /analyze- C:\USERS\INNOT\TASK3\SRC\EASYBMP\EASYBMP_OPENGL.CPP
^C:\USERS\INNOT\TASK3\SRC\EASYBMP\EASYBMP_WIN32.CPP
/c /I..\freeglut\include /I..\glew\include /I..\glm /ZI /nologo /W3 /WX- /Od /Oy- /D _MBCS /Gm /EHsc /RTC1 /MDd /GS /fp:precise /Zc:wchar_t /Zc:forScope /Fo"DEBUG\\" /Fd"DEBUG\VC110.PDB" /Gd /TP /analyze- C:\USERS\INNOT\TASK3\SRC\EASYBMP\EASYBMP_WIN32.CPP
^C:\USERS\INNOT\TASK3\SRC\TRIANGLES\EASYBMP.CPP
/c /I..\freeglut\include /I..\glew\include /I..\glm /ZI /nologo /W3 /WX- /Od /Oy- /D _MBCS /Gm /EHsc /RTC1 /MDd /GS /fp:precise /Zc:wchar_t /Zc:forScope /Fo"DEBUG\\" /Fd"DEBUG\VC110.PDB" /Gd /TP /analyze- C:\USERS\INNOT\TASK3\SRC\TRIANGLES\EASYBMP.CPP
^C:\USERS\INNOT\TASK3\SRC\TRIANGLES\EASYBMP_OPENGL.CPP
/c /I..\freeglut\include /I..\glew\include /I..\glm /ZI /nologo /W3 /WX- /Od /Oy- /D _MBCS /Gm /EHsc /RTC1 /MDd /GS /fp:precise /Zc:wchar_t /Zc:forScope /Fo"DEBUG\\" /Fd"DEBUG\VC110.PDB" /Gd /TP /analyze- C:\USERS\INNOT\TASK3\SRC\TRIANGLES\EASYBMP_OPENGL.CPP
^C:\USERS\INNOT\TASK3\SRC\TRIANGLES\TEXTURE.CPP
/c /I..\freeglut\include /I..\glew\include /I..\glm /ZI /nologo /W3 /WX- /Od /Oy- /D _MBCS /Gm /EHsc /RTC1 /MDd /GS /fp:precise /Zc:wchar_t /Zc:forScope /Fo"DEBUG\\" /Fd"DEBUG\VC110.PDB" /Gd /TP /analyze- C:\USERS\INNOT\TASK3\SRC\TRIANGLES\TEXTURE.CPP
